{
  "HOST": "127.0.0.1",
  "PORT": 8080,

  "ROOT_DIR": "/var/www/path/to/your/dir",

  "database": ":memory:",

  "limit": 10,

  "lat_delta": 0.005,
  "lon_delta": 0.005,
  "max_vector_distance": 0.1,
  "max_addr_distance": 0.1,

  "word2vec_corpus": "/corpus/file/path",

  "google": {
    "key": "YOUR_API_KEY"
  },

  "meetup": {
    "lat": 35.596922,
    "lon": 139.349335,
    "radius": 20,
    "topic_category": 292,
    "key": "YOUR_API_KEY"
  },

  "eventbrite": {
    "q": "machine learning",
    "location.latitude": 35.596922,
    "location.longitude": 139.349335,
    "location.within": 20,
    "key": "YOUR_API_KEY"
  }
}
